vhdl/simulation/qsim/ula.msim.vcd
$comment
	File created using the following command:
		vcd file ula.msim.vcd -direction
$end
$date
	Thu Oct 17 15:28:44 2024
$end
$version
	ModelSim Version 10.1d
$end
$timescale
	1ps
$end
$scope module ula_vlg_vec_tst $end
$var reg 4 ! entrada1 [3:0] $end
$var reg 4 " entrada2 [3:0] $end
$var reg 4 # seletor [3:0] $end
$var wire 1 $ overflow $end
$var wire 1 % saida [3] $end
$var wire 1 & saida [2] $end
$var wire 1 ' saida [1] $end
$var wire 1 ( saida [0] $end
$var wire 1 ) sampler $end
$scope module i1 $end
$var wire 1 * gnd $end
$var wire 1 + vcc $end
$var wire 1 , unknown $end
$var tri1 1 - devclrn $end
$var tri1 1 . devpor $end
$var tri1 1 / devoe $end
$var wire 1 0 Mux4~1_combout $end
$var wire 1 1 saida~3_combout $end
$var wire 1 2 Equal0~1_combout $end
$var wire 1 3 Mux0~0_combout $end
$var wire 1 4 igual~combout $end
$var wire 1 5 Mux13~0_combout $end
$var wire 1 6 Mux13~0clkctrl_outclk $end
$var wire 1 7 Equal0~0_combout $end
$var wire 1 8 LessThan1~0_combout $end
$var wire 1 9 LessThan1~1_combout $end
$var wire 1 : LessThan1~2_combout $end
$var wire 1 ; LessThan0~1_combout $end
$var wire 1 < LessThan0~0_combout $end
$var wire 1 = LessThan0~2_combout $end
$var wire 1 > entrada_maior[3]~3_combout $end
$var wire 1 ? entrada_maior[2]~2_combout $end
$var wire 1 @ entrada_maior[1]~1_combout $end
$var wire 1 A Mux14~0_combout $end
$var wire 1 B Mux7~0_combout $end
$var wire 1 C Mux8~0_combout $end
$var wire 1 D Mux8~0clkctrl_outclk $end
$var wire 1 E Mux14~1_combout $end
$var wire 1 F Mux15~0_combout $end
$var wire 1 G Mux9~0_combout $end
$var wire 1 H Mux15~1_combout $end
$var wire 1 I Mux16~0_combout $end
$var wire 1 J Mux10~0_combout $end
$var wire 1 K Mux16~1_combout $end
$var wire 1 L Mux17~0_combout $end
$var wire 1 M Mux11~0_combout $end
$var wire 1 N Mux17~1_combout $end
$var wire 1 O Mux5~1_combout $end
$var wire 1 P Mux5~2_combout $end
$var wire 1 Q Mux5~3_combout $end
$var wire 1 R Mux5~4_combout $end
$var wire 1 S entrada_maior[0]~0_combout $end
$var wire 1 T Mux5~0_combout $end
$var wire 1 U Mux5~5_combout $end
$var wire 1 V Mux4~0_combout $end
$var wire 1 W Mux4~3_combout $end
$var wire 1 X Mux4~2_combout $end
$var wire 1 Y saida~0_combout $end
$var wire 1 Z Mux4~4_combout $end
$var wire 1 [ saida~1_combout $end
$var wire 1 \ Mux3~0_combout $end
$var wire 1 ] Mux3~1_combout $end
$var wire 1 ^ saida~2_combout $end
$var wire 1 _ Mux2~0_combout $end
$var wire 1 ` Mux2~1_combout $end
$var wire 1 a Mux5~6_combout $end
$var wire 1 b Mux6~0_combout $end
$var wire 1 c subtracao [3] $end
$var wire 1 d subtracao [2] $end
$var wire 1 e subtracao [1] $end
$var wire 1 f subtracao [0] $end
$var wire 1 g carry [4] $end
$var wire 1 h carry [3] $end
$var wire 1 i carry [2] $end
$var wire 1 j carry [1] $end
$var wire 1 k carry [0] $end
$var wire 1 l seletor~combout [3] $end
$var wire 1 m seletor~combout [2] $end
$var wire 1 n seletor~combout [1] $end
$var wire 1 o seletor~combout [0] $end
$var wire 1 p entrada2~combout [3] $end
$var wire 1 q entrada2~combout [2] $end
$var wire 1 r entrada2~combout [1] $end
$var wire 1 s entrada2~combout [0] $end
$var wire 1 t entrada1~combout [3] $end
$var wire 1 u entrada1~combout [2] $end
$var wire 1 v entrada1~combout [1] $end
$var wire 1 w entrada1~combout [0] $end
$upscope $end
$upscope $end
$enddefinitions $end
#0
$dumpvars
b0 !
b0 "
b1001 #
0$
1(
0'
0&
0%
x)
0*
1+
x,
1-
1.
1/
00
01
12
13
14
05
06
17
08
09
0:
0;
0<
0=
0>
0?
0@
0A
0B
0C
0D
0E
0F
0G
0H
0I
0J
0K
0L
0M
0N
xO
1P
0Q
1R
0S
0T
1U
xV
0W
0X
xY
0Z
x[
0\
0]
x^
0_
0`
1a
0b
xf
xe
xd
xc
xk
xj
xi
xh
xg
1o
0n
0m
1l
0s
0r
0q
0p
0w
0v
0u
0t
$end
#2500
b1 !
1w
0)
1S
xA
1;
02
xE
1=
04
0P
0R
0U
0(
#5000
b11 !
b10 !
0w
1v
1)
0S
0A
12
xF
1@
11
0E
14
xH
02
1P
04
1R
0P
1U
0R
0U
1(
0(
#7500
b11 !
1w
0)
1S
xA
xE
#10000
b111 !
b101 !
b100 !
0w
0v
1u
1)
0S
0A
0;
0F
0@
01
xI
1?
1<
07
0E
0H
xK
#12500
b101 !
1w
0)
1S
xA
1;
xE
#15000
b111 !
b110 !
0w
1v
1)
0S
0A
xF
1@
11
0E
xH
#17500
b111 !
1w
0)
1S
xA
xE
#20000
b1111 !
b1011 !
b1001 !
b1000 !
0w
0v
0u
1t
1)
0S
0A
0;
0F
0@
01
0I
0?
xL
1>
0E
0H
0K
xN
#22500
b1001 !
1w
0)
1S
xA
1;
xE
#25000
b1011 !
b1010 !
0w
1v
1)
0S
0A
xF
1@
11
0E
xH
#27500
b1011 !
1w
0)
1S
xA
xE
#30000
b1111 !
b1101 !
b1100 !
0w
0v
1u
1)
0S
0A
0;
0F
0@
01
xI
1?
0E
0H
xK
#32500
b1101 !
1w
0)
1S
xA
1;
xE
#35000
b1111 !
b1110 !
0w
1v
1)
0S
0A
xF
1@
11
0E
xH
#37500
b1111 !
1w
0)
1S
xA
xE
#40000
b1 "
b111 !
b11 !
b1 !
b0 !
0w
0v
0u
0t
1s
1)
0S
1B
0;
19
0F
0@
01
0I
0?
0<
17
0L
0>
0=
1:
0H
0K
0N
1S
1Q
0B
#42500
b1 !
1w
0)
1B
1A
09
12
1E
0:
14
0Q
1P
1R
1U
1(
#45000
b11 !
b10 !
0w
1v
1)
0S
xA
1;
02
xF
1@
11
xE
1=
04
xH
0P
0R
0U
0(
#47500
b11 !
1w
0)
1S
1A
1E
#50000
b111 !
b101 !
b100 !
0w
0v
1u
1)
0S
xA
0;
19
0F
0@
01
xI
1?
1<
07
xE
0H
xK
#52500
b101 !
1w
0)
1S
1A
09
1E
#55000
b111 !
b110 !
0w
1v
1)
0S
xA
1;
xF
1@
11
xE
xH
#57500
b111 !
1w
0)
1S
1A
1E
#60000
b1111 !
b1011 !
b1001 !
b1000 !
0w
0v
0u
1t
1)
0S
xA
0;
19
0F
0@
01
0I
0?
xL
1>
xE
0H
0K
xN
#62500
b1001 !
1w
0)
1S
1A
09
1E
#65000
b1011 !
b1010 !
0w
1v
1)
0S
xA
1;
xF
1@
11
xE
xH
#67500
b1011 !
1w
0)
1S
1A
1E
#70000
b1111 !
b1101 !
b1100 !
0w
0v
1u
1)
0S
xA
0;
19
0F
0@
01
xI
1?
xE
0H
xK
#72500
b1101 !
1w
0)
1S
1A
09
1E
#75000
b1111 !
b1110 !
0w
1v
1)
0S
xA
1;
xF
1@
11
xE
xH
#77500
b1111 !
1w
0)
1S
1A
1E
#80000
b11 "
b10 "
b111 !
b11 !
b1 !
b0 !
0w
0v
0u
0t
0s
1r
1)
0S
0B
0A
0;
19
1G
0@
0I
0?
0<
17
0L
0>
0E
0=
1:
0K
0N
1Q
0G
1@
#82500
b1 !
1w
0)
1B
xA
xE
#85000
b11 !
b10 !
0w
1v
1)
0B
0A
09
1G
1F
01
0E
0:
1H
12
0Q
14
1P
1R
1U
1(
#87500
b11 !
1w
0)
1S
xA
1;
02
xE
1=
04
0P
0R
0U
0(
#90000
b111 !
b101 !
b100 !
0w
0v
1u
1)
0S
0A
0;
19
12
xF
0@
11
xI
1?
1<
07
0E
14
xH
02
xK
1P
04
1R
0P
1U
0R
0U
1(
0(
#92500
b101 !
1w
0)
1S
xA
xE
#95000
b111 !
b110 !
0w
1v
1)
0S
0A
09
1F
1@
01
0E
1H
#97500
b111 !
1w
0)
1S
xA
1;
xE
#100000
b1111 !
b1011 !
b1001 !
b1000 !
0w
0v
0u
1t
1)
0S
0A
0;
19
xF
0@
11
0I
0?
xL
1>
0E
xH
0K
xN
#102500
b1001 !
1w
0)
1S
xA
xE
#105000
b1011 !
b1010 !
0w
1v
1)
0S
0A
09
1F
1@
01
0E
1H
#107500
b1011 !
1w
0)
1S
xA
1;
xE
#110000
b1111 !
b1101 !
b1100 !
0w
0v
1u
1)
0S
0A
0;
19
xF
0@
11
xI
1?
0E
xH
xK
#112500
b1101 !
1w
0)
1S
xA
xE
#115000
b1111 !
b1110 !
0w
1v
1)
0S
0A
09
1F
1@
01
0E
1H
#117500
b1111 !
1w
0)
1S
xA
1;
xE
#120000
b11 "
b111 !
b11 !
b1 !
b0 !
0w
0v
0u
0t
1s
1)
0S
1B
0;
19
xF
0@
11
0I
0?
0<
17
0L
0>
0=
1:
xH
0K
0N
1S
1Q
0G
0B
1@
#122500
b1 !
1w
0)
1B
1A
1E
#125000
b11 !
b10 !
0w
1v
1)
0B
xA
1G
1F
01
xE
1H
#127500
b11 !
1w
0)
1B
1A
09
12
1E
0:
14
0Q
1P
1R
1U
1(
#130000
b111 !
b101 !
b100 !
0w
0v
1u
1)
0S
xA
19
02
xF
0@
11
xI
1?
1<
07
xE
04
xH
xK
1=
0P
0R
0U
0(
#132500
b101 !
1w
0)
1S
1A
1E
#135000
b111 !
b110 !
0w
1v
1)
0S
xA
1F
1@
01
xE
1H
#137500
b111 !
1w
0)
1S
1A
09
1E
#140000
b1111 !
b1011 !
b1001 !
b1000 !
0w
0v
0u
1t
1)
0S
xA
19
xF
0@
11
0I
0?
xL
1>
xE
xH
0K
xN
#142500
b1001 !
1w
0)
1S
1A
1E
#145000
b1011 !
b1010 !
0w
1v
1)
0S
xA
1F
1@
01
xE
1H
#147500
b1011 !
1w
0)
1S
1A
09
1E
#150000
b1111 !
b1101 !
b1100 !
0w
0v
1u
1)
0S
xA
19
xF
0@
11
xI
1?
xE
xH
xK
#152500
b1101 !
1w
0)
1S
1A
1E
#155000
b1111 !
b1110 !
0w
1v
1)
0S
xA
1F
1@
01
xE
1H
#157500
b1111 !
1w
0)
1S
1A
09
1E
#160000
b111 "
b101 "
b100 "
b111 !
b11 !
b1 !
b0 !
0w
0v
0u
0t
0s
0r
1q
1)
0S
0B
0A
0G
0F
0@
1J
0?
0<
18
0L
0>
0E
0H
0=
1:
0N
1Q
0J
1?
#162500
b1 !
1w
0)
1B
xA
1;
xE
#165000
b11 !
b10 !
0w
1v
1)
0B
0A
1G
xF
11
0E
xH
#167500
b11 !
1w
0)
1B
xA
xE
#170000
b111 !
b101 !
b100 !
0w
0v
1u
1)
0B
0A
0;
0G
0F
01
1J
1I
08
17
0E
0H
12
1K
0:
14
0Q
1P
1R
1U
1(
#172500
b101 !
1w
0)
1S
xA
1;
02
xE
1=
04
0P
0R
0U
0(
#175000
b111 !
b110 !
0w
1v
1)
0S
0A
12
xF
1@
11
0E
14
xH
02
1P
04
1R
0P
1U
0R
0U
1(
0(
#177500
b111 !
1w
0)
1S
xA
xE
#180000
b1111 !
b1011 !
b1001 !
b1000 !
0w
0v
0u
1t
1)
0S
0A
0;
0F
0@
01
xI
0?
1<
07
xL
1>
0E
0H
xK
xN
#182500
b1001 !
1w
0)
1S
xA
1;
xE
#185000
b1011 !
b1010 !
0w
1v
1)
0S
0A
xF
1@
11
0E
xH
#187500
b1011 !
1w
0)
1S
xA
xE
#190000
b1111 !
b1101 !
b1100 !
0w
0v
1u
1)
0S
0A
0;
0F
0@
01
1I
1?
0E
0H
1K
#192500
b1101 !
1w
0)
1S
xA
1;
xE
#195000
b1111 !
b1110 !
0w
1v
1)
0S
0A
xF
1@
11
0E
xH
#197500
b1111 !
1w
0)
1S
xA
xE
#200000
b101 "
b111 !
b11 !
b1 !
b0 !
0w
0v
0u
0t
1s
1)
0S
1B
0;
19
0F
0@
01
xI
0?
0<
18
0L
0>
0=
1:
0H
xK
0N
1S
1Q
0J
0B
1?
#202500
b1 !
1w
0)
1B
1A
09
1E
#205000
b11 !
b10 !
0w
1v
1)
0B
xA
1;
1G
xF
11
xE
xH
#207500
b11 !
1w
0)
1B
1A
1E
#210000
b111 !
b101 !
b100 !
0w
0v
1u
1)
0B
xA
0;
19
0G
0F
01
1J
1I
08
17
xE
0H
1K
#212500
b101 !
1w
0)
1B
1A
09
12
1E
0:
14
0Q
1P
1R
1U
1(
#215000
b111 !
b110 !
0w
1v
1)
0S
xA
1;
02
xF
1@
11
xE
1=
04
xH
0P
0R
0U
0(
#217500
b111 !
1w
0)
1S
1A
1E
#220000
b1111 !
b1011 !
b1001 !
b1000 !
0w
0v
0u
1t
1)
0S
xA
0;
19
0F
0@
01
xI
0?
1<
07
xL
1>
xE
0H
xK
xN
#222500
b1001 !
1w
0)
1S
1A
09
1E
#225000
b1011 !
b1010 !
0w
1v
1)
0S
xA
1;
xF
1@
11
xE
xH
#227500
b1011 !
1w
0)
1S
1A
1E
#230000
b1111 !
b1101 !
b1100 !
0w
0v
1u
1)
0S
xA
0;
19
0F
0@
01
1I
1?
xE
0H
1K
#232500
b1101 !
1w
0)
1S
1A
09
1E
#235000
b1111 !
b1110 !
0w
1v
1)
0S
xA
1;
xF
1@
11
xE
xH
#237500
b1111 !
1w
0)
1S
1A
1E
#240000
b111 "
b110 "
b111 !
b11 !
b1 !
b0 !
0w
0v
0u
0t
0s
1r
1)
0S
0B
0A
0;
19
1G
0@
xI
0?
0<
18
0L
0>
0E
0=
1:
xK
0N
1Q
0J
0G
1@
1?
#242500
b1 !
1w
0)
1B
xA
xE
#245000
b11 !
b10 !
0w
1v
1)
0B
0A
09
1G
1F
01
0E
1H
#247500
b11 !
1w
0)
1B
xA
1;
xE
#250000
b111 !
b101 !
b100 !
0w
0v
1u
1)
0B
0A
0;
19
0G
xF
11
1J
1I
08
17
0E
xH
1K
#252500
b101 !
1w
0)
1B
xA
xE
#255000
b111 !
b110 !
0w
1v
1)
0B
0A
09
1G
1F
01
0E
0:
1H
12
0Q
14
1P
1R
1U
1(
#257500
b111 !
1w
0)
1S
xA
1;
02
xE
1=
04
0P
0R
0U
0(
#260000
b1111 !
b1011 !
b1001 !
b1000 !
0w
0v
0u
1t
1)
0S
0A
0;
19
12
xF
0@
11
xI
0?
1<
07
xL
1>
0E
14
xH
02
xK
xN
1P
04
1R
0P
1U
0R
0U
1(
0(
#262500
b1001 !
1w
0)
1S
xA
xE
#265000
b1011 !
b1010 !
0w
1v
1)
0S
0A
09
1F
1@
01
0E
1H
#267500
b1011 !
1w
0)
1S
xA
1;
xE
#270000
b1111 !
b1101 !
b1100 !
0w
0v
1u
1)
0S
0A
0;
19
xF
0@
11
1I
1?
0E
xH
1K
#272500
b1101 !
1w
0)
1S
xA
xE
#275000
b1111 !
b1110 !
0w
1v
1)
0S
0A
09
1F
1@
01
0E
1H
#277500
b1111 !
1w
0)
1S
xA
1;
xE
#280000
b111 "
b111 !
b11 !
b1 !
b0 !
0w
0v
0u
0t
1s
1)
0S
1B
0;
19
xF
0@
11
xI
0?
0<
18
0L
0>
0=
1:
xH
xK
0N
1S
1Q
0J
0G
0B
1@
1?
#282500
b1 !
1w
0)
1B
1A
1E
#285000
b11 !
b10 !
0w
1v
1)
0B
xA
1G
1F
01
xE
1H
#287500
b11 !
1w
0)
1B
1A
09
1E
#290000
b111 !
b101 !
b100 !
0w
0v
1u
1)
0B
xA
19
0G
xF
11
1J
1I
08
17
xE
xH
1K
#292500
b101 !
1w
0)
1B
1A
1E
#295000
b111 !
b110 !
0w
1v
1)
0B
xA
1G
1F
01
xE
1H
#297500
b111 !
1w
0)
1B
1A
09
12
1E
0:
14
0Q
1P
1R
1U
1(
#300000
b1111 !
b1011 !
b1001 !
b1000 !
0w
0v
0u
1t
1)
0S
xA
19
02
xF
0@
11
xI
0?
1<
07
xL
1>
xE
04
xH
xK
1=
xN
0P
0R
0U
0(
#302500
b1001 !
1w
0)
1S
1A
1E
#305000
b1011 !
b1010 !
0w
1v
1)
0S
xA
1F
1@
01
xE
1H
#307500
b1011 !
1w
0)
1S
1A
09
1E
#310000
b1111 !
b1101 !
b1100 !
0w
0v
1u
1)
0S
xA
19
xF
0@
11
1I
1?
xE
xH
1K
#312500
b1101 !
1w
0)
1S
1A
1E
#315000
b1111 !
b1110 !
0w
1v
1)
0S
xA
1F
1@
01
xE
1H
#317500
b1111 !
1w
0)
1S
1A
09
1E
#320000
b1111 "
b1011 "
b1001 "
b1000 "
b111 !
b11 !
b1 !
b0 !
0w
0v
0u
0t
0s
0r
0q
1p
1)
0S
0B
0A
0G
0F
0@
0J
0I
0?
0<
18
1M
0>
0E
0H
0K
0=
1:
1Q
0M
1>
#322500
b1 !
1w
0)
1B
xA
1;
xE
#325000
b11 !
b10 !
0w
1v
1)
0B
0A
1G
xF
11
0E
xH
#327500
b11 !
1w
0)
1B
xA
xE
#330000
b111 !
b101 !
b100 !
0w
0v
1u
1)
0B
0A
0;
0G
0F
01
1J
xI
0E
0H
xK
#332500
b101 !
1w
0)
1B
xA
1;
xE
#335000
b111 !
b110 !
0w
1v
1)
0B
0A
1G
xF
11
0E
xH
#337500
b111 !
1w
0)
1B
xA
xE
#340000
b1111 !
b1011 !
b1001 !
b1000 !
0w
0v
0u
1t
1)
0B
0A
0;
0G
0F
01
0J
0I
08
17
1M
1L
0E
0H
12
0K
0:
1N
14
0Q
1P
1R
1U
1(
#342500
b1001 !
1w
0)
1S
xA
1;
02
xE
1=
04
0P
0R
0U
0(
#345000
b1011 !
b1010 !
0w
1v
1)
0S
0A
12
xF
1@
11
0E
14
xH
02
1P
04
1R
0P
1U
0R
0U
1(
0(
#347500
b1011 !
1w
0)
1S
xA
xE
#350000
b1111 !
b1101 !
b1100 !
0w
0v
1u
1)
0S
0A
0;
0F
0@
01
xI
1?
1<
07
0E
0H
xK
#352500
b1101 !
1w
0)
1S
xA
1;
xE
#355000
b1111 !
b1110 !
0w
1v
1)
0S
0A
xF
1@
11
0E
xH
#357500
b1111 !
1w
0)
1S
xA
xE
#360000
b1001 "
b111 !
b11 !
b1 !
b0 !
0w
0v
0u
0t
1s
1)
0S
1B
0;
19
0F
0@
01
0I
0?
0<
18
xL
0>
0=
1:
0H
0K
xN
1S
1Q
0M
0B
1>
#362500
b1 !
1w
0)
1B
1A
09
1E
#365000
b11 !
b10 !
0w
1v
1)
0B
xA
1;
1G
xF
11
xE
xH
#367500
b11 !
1w
0)
1B
1A
1E
#370000
b111 !
b101 !
b100 !
0w
0v
1u
1)
0B
xA
0;
19
0G
0F
01
1J
xI
xE
0H
xK
#372500
b101 !
1w
0)
1B
1A
09
1E
#375000
b111 !
b110 !
0w
1v
1)
0B
xA
1;
1G
xF
11
xE
xH
#377500
b111 !
1w
0)
1B
1A
1E
#380000
b1111 !
b1011 !
b1001 !
b1000 !
0w
0v
0u
1t
1)
0B
xA
0;
19
0G
0F
01
0J
0I
08
17
1M
1L
xE
0H
0K
1N
#382500
b1001 !
1w
0)
1B
1A
09
12
1E
0:
14
0Q
1P
1R
1U
1(
#385000
b1011 !
b1010 !
0w
1v
1)
0S
xA
1;
02
xF
1@
11
xE
1=
04
xH
0P
0R
0U
0(
#387500
b1011 !
1w
0)
1S
1A
1E
#390000
b1111 !
b1101 !
b1100 !
0w
0v
1u
1)
0S
xA
0;
19
0F
0@
01
xI
1?
1<
07
xE
0H
xK
#392500
b1101 !
1w
0)
1S
1A
09
1E
#395000
b1111 !
b1110 !
0w
1v
1)
0S
xA
1;
xF
1@
11
xE
xH
#397500
b1111 !
1w
0)
1S
1A
1E
#400000
b1011 "
b1010 "
b111 !
b11 !
b1 !
b0 !
0w
0v
0u
0t
0s
1r
1)
0S
0B
0A
0;
19
1G
0@
0I
0?
0<
18
xL
0>
0E
0=
1:
0K
xN
1Q
0M
0G
1@
1>
#402500
b1 !
1w
0)
1B
xA
xE
#405000
b11 !
b10 !
0w
1v
1)
0B
0A
09
1G
1F
01
0E
1H
#407500
b11 !
1w
0)
1B
xA
1;
xE
#410000
b111 !
b101 !
b100 !
0w
0v
1u
1)
0B
0A
0;
19
0G
xF
11
1J
xI
0E
xH
xK
#412500
b101 !
1w
0)
1B
xA
xE
#415000
b111 !
b110 !
0w
1v
1)
0B
0A
09
1G
1F
01
0E
1H
#417500
b111 !
1w
0)
1B
xA
1;
xE
#420000
b1111 !
b1011 !
b1001 !
b1000 !
0w
0v
0u
1t
1)
0B
0A
0;
19
0G
xF
11
0J
0I
08
17
1M
1L
0E
xH
0K
1N
#422500
b1001 !
1w
0)
1B
xA
xE
#425000
b1011 !
b1010 !
0w
1v
1)
0B
0A
09
1G
1F
01
0E
0:
1H
12
0Q
14
1P
1R
1U
1(
#427500
b1011 !
1w
0)
1S
xA
1;
02
xE
1=
04
0P
0R
0U
0(
#430000
b1111 !
b1101 !
b1100 !
0w
0v
1u
1)
0S
0A
0;
19
12
xF
0@
11
xI
1?
1<
07
0E
14
xH
02
xK
1P
04
1R
0P
1U
0R
0U
1(
0(
#432500
b1101 !
1w
0)
1S
xA
xE
#435000
b1111 !
b1110 !
0w
1v
1)
0S
0A
09
1F
1@
01
0E
1H
#437500
b1111 !
1w
0)
1S
xA
1;
xE
#440000
b1011 "
b111 !
b11 !
b1 !
b0 !
0w
0v
0u
0t
1s
1)
0S
1B
0;
19
xF
0@
11
0I
0?
0<
18
xL
0>
0=
1:
xH
0K
xN
1S
1Q
0M
0G
0B
1@
1>
#442500
b1 !
1w
0)
1B
1A
1E
#445000
b11 !
b10 !
0w
1v
1)
0B
xA
1G
1F
01
xE
1H
#447500
b11 !
1w
0)
1B
1A
09
1E
#450000
b111 !
b101 !
b100 !
0w
0v
1u
1)
0B
xA
19
0G
xF
11
1J
xI
xE
xH
xK
#452500
b101 !
1w
0)
1B
1A
1E
#455000
b111 !
b110 !
0w
1v
1)
0B
xA
1G
1F
01
xE
1H
#457500
b111 !
1w
0)
1B
1A
09
1E
#460000
b1111 !
b1011 !
b1001 !
b1000 !
0w
0v
0u
1t
1)
0B
xA
19
0G
xF
11
0J
0I
08
17
1M
1L
xE
xH
0K
1N
#462500
b1001 !
1w
0)
1B
1A
1E
#465000
b1011 !
b1010 !
0w
1v
1)
0B
xA
1G
1F
01
xE
1H
#467500
b1011 !
1w
0)
1B
1A
09
12
1E
0:
14
0Q
1P
1R
1U
1(
#470000
b1111 !
b1101 !
b1100 !
0w
0v
1u
1)
0S
xA
19
02
xF
0@
11
xI
1?
1<
07
xE
04
xH
xK
1=
0P
0R
0U
0(
#472500
b1101 !
1w
0)
1S
1A
1E
#475000
b1111 !
b1110 !
0w
1v
1)
0S
xA
1F
1@
01
xE
1H
#477500
b1111 !
1w
0)
1S
1A
09
1E
#480000
b1111 "
b1101 "
b1100 "
b111 !
b11 !
b1 !
b0 !
0w
0v
0u
0t
0s
0r
1q
1)
0S
0B
0A
0G
0F
0@
1J
0?
0<
18
xL
0>
0E
0H
0=
1:
xN
1Q
0M
0J
1?
1>
#482500
b1 !
1w
0)
1B
xA
1;
xE
#485000
b11 !
b10 !
0w
1v
1)
0B
0A
1G
xF
11
0E
xH
#487500
b11 !
1w
0)
1B
xA
xE
#490000
b111 !
b101 !
b100 !
0w
0v
1u
1)
0B
0A
0;
0G
0F
01
1J
1I
0E
0H
1K
#492500
b101 !
1w
0)
1B
xA
1;
xE
#495000
b111 !
b110 !
0w
1v
1)
0B
0A
1G
xF
11
0E
xH
#497500
b111 !
1w
0)
1B
xA
xE
#500000
b1111 !
b1011 !
b1001 !
b1000 !
0w
0v
0u
1t
1)
0B
0A
0;
0G
0F
01
0J
xI
1M
1L
0E
0H
xK
1N
#502500
b1001 !
1w
0)
1B
xA
1;
xE
#505000
b1011 !
b1010 !
0w
1v
1)
0B
0A
1G
xF
11
0E
xH
#507500
b1011 !
1w
0)
1B
xA
xE
#510000
b1111 !
b1101 !
b1100 !
0w
0v
1u
1)
0B
0A
0;
0G
0F
01
1J
1I
08
17
0E
0H
12
1K
0:
14
0Q
1P
1R
1U
1(
#512500
b1101 !
1w
0)
1S
xA
1;
02
xE
1=
04
0P
0R
0U
0(
#515000
b1111 !
b1110 !
0w
1v
1)
0S
0A
12
xF
1@
11
0E
14
xH
02
1P
04
1R
0P
1U
0R
0U
1(
0(
#517500
b1111 !
1w
0)
1S
xA
xE
#520000
b1101 "
b111 !
b11 !
b1 !
b0 !
0w
0v
0u
0t
1s
1)
0S
1B
0;
19
0F
0@
01
xI
0?
18
07
xL
0>
0=
1:
0H
xK
xN
1S
1Q
0M
0J
0B
1?
1>
#522500
b1 !
1w
0)
1B
1A
09
1E
#525000
b11 !
b10 !
0w
1v
1)
0B
xA
1;
1G
xF
11
xE
xH
#527500
b11 !
1w
0)
1B
1A
1E
#530000
b111 !
b101 !
b100 !
0w
0v
1u
1)
0B
xA
0;
19
0G
0F
01
1J
1I
xE
0H
1K
#532500
b101 !
1w
0)
1B
1A
09
1E
#535000
b111 !
b110 !
0w
1v
1)
0B
xA
1;
1G
xF
11
xE
xH
#537500
b111 !
1w
0)
1B
1A
1E
#540000
b1111 !
b1011 !
b1001 !
b1000 !
0w
0v
0u
1t
1)
0B
xA
0;
19
0G
0F
01
0J
xI
1M
1L
xE
0H
xK
1N
#542500
b1001 !
1w
0)
1B
1A
09
1E
#545000
b1011 !
b1010 !
0w
1v
1)
0B
xA
1;
1G
xF
11
xE
xH
#547500
b1011 !
1w
0)
1B
1A
1E
#550000
b1111 !
b1101 !
b1100 !
0w
0v
1u
1)
0B
xA
0;
19
0G
0F
01
1J
1I
08
17
xE
0H
1K
#552500
b1101 !
1w
0)
1B
1A
09
12
1E
0:
14
0Q
1P
1R
1U
1(
#555000
b1111 !
b1110 !
0w
1v
1)
0S
xA
1;
02
xF
1@
11
xE
1=
04
xH
0P
0R
0U
0(
#557500
b1111 !
1w
0)
1S
1A
1E
#560000
b1111 "
b1110 "
b111 !
b11 !
b1 !
b0 !
0w
0v
0u
0t
0s
1r
1)
0S
0B
0A
0;
19
1G
0@
xI
0?
18
07
xL
0>
0E
0=
1:
xK
xN
1Q
0M
0J
0G
1@
1?
1>
#562500
b1 !
1w
0)
1B
xA
xE
#565000
b11 !
b10 !
0w
1v
1)
0B
0A
09
1G
1F
01
0E
1H
#567500
b11 !
1w
0)
1B
xA
1;
xE
#570000
b111 !
b101 !
b100 !
0w
0v
1u
1)
0B
0A
0;
19
0G
xF
11
1J
1I
0E
xH
1K
#572500
b101 !
1w
0)
1B
xA
xE
#575000
b111 !
b110 !
0w
1v
1)
0B
0A
09
1G
1F
01
0E
1H
#577500
b111 !
1w
0)
1B
xA
1;
xE
#580000
b1111 !
b1011 !
b1001 !
b1000 !
0w
0v
0u
1t
1)
0B
0A
0;
19
0G
xF
11
0J
xI
1M
1L
0E
xH
xK
1N
#582500
b1001 !
1w
0)
1B
xA
xE
#585000
b1011 !
b1010 !
0w
1v
1)
0B
0A
09
1G
1F
01
0E
1H
#587500
b1011 !
1w
0)
1B
xA
1;
xE
#590000
b1111 !
b1101 !
b1100 !
0w
0v
1u
1)
0B
0A
0;
19
0G
xF
11
1J
1I
08
17
0E
xH
1K
#592500
b1101 !
1w
0)
1B
xA
xE
#595000
b1111 !
b1110 !
0w
1v
1)
0B
0A
09
1G
1F
01
0E
0:
1H
12
0Q
14
1P
1R
1U
1(
#597500
b1111 !
1w
0)
1S
xA
1;
02
xE
1=
04
0P
0R
0U
0(
#600000
b1111 "
b111 !
b11 !
b1 !
b0 !
0w
0v
0u
0t
1s
1)
0S
1B
0;
19
xF
0@
11
xI
0?
18
07
xL
0>
0=
1:
xH
xK
xN
1S
1Q
0M
0J
0G
0B
1@
1?
1>
#602500
b1 !
1w
0)
1B
1A
1E
#605000
b11 !
b10 !
0w
1v
1)
0B
xA
1G
1F
01
xE
1H
#607500
b11 !
1w
0)
1B
1A
09
1E
#610000
b111 !
b101 !
b100 !
0w
0v
1u
1)
0B
xA
19
0G
xF
11
1J
1I
xE
xH
1K
#612500
b101 !
1w
0)
1B
1A
1E
#615000
b111 !
b110 !
0w
1v
1)
0B
xA
1G
1F
01
xE
1H
#617500
b111 !
1w
0)
1B
1A
09
1E
#620000
b1111 !
b1011 !
b1001 !
b1000 !
0w
0v
0u
1t
1)
0B
xA
19
0G
xF
11
0J
xI
1M
1L
xE
xH
xK
1N
#622500
b1001 !
1w
0)
1B
1A
1E
#625000
b1011 !
b1010 !
0w
1v
1)
0B
xA
1G
1F
01
xE
1H
#627500
b1011 !
1w
0)
1B
1A
09
1E
#630000
b1111 !
b1101 !
b1100 !
0w
0v
1u
1)
0B
xA
19
0G
xF
11
1J
1I
08
17
xE
xH
1K
#632500
b1101 !
1w
0)
1B
1A
1E
#635000
b1111 !
b1110 !
0w
1v
1)
0B
xA
1G
1F
01
xE
1H
#637500
b1111 !
1w
0)
1B
1A
09
12
1E
0:
14
0Q
1P
1R
1U
1(
#640000
b111 "
b11 "
b1 "
b0 "
b111 !
b11 !
b1 !
b0 !
0w
0v
0u
0t
0s
0r
0q
0p
1)
0S
0B
0A
0G
0F
0@
0J
0I
0?
0M
0L
0>
0E
0H
0K
0N
#642500
b1 !
1w
0)
1S
xA
1;
02
xE
1=
04
0P
0R
0U
0(
#645000
b11 !
b10 !
0w
1v
1)
0S
0A
12
xF
1@
11
0E
14
xH
02
1P
04
1R
0P
1U
0R
0U
1(
0(
#647500
b11 !
1w
0)
1S
xA
xE
#650000
b111 !
b101 !
b100 !
0w
0v
1u
1)
0S
0A
0;
0F
0@
01
xI
1?
1<
07
0E
0H
xK
#652500
b101 !
1w
0)
1S
xA
1;
xE
#655000
b111 !
b110 !
0w
1v
1)
0S
0A
xF
1@
11
0E
xH
